{
  "project_info": {
    "project_number": "529266419058",
    "project_id": "zmood-314009",
    "storage_bucket": "zmood-314009.appspot.com"
  },
  "client": [
    {
      "client_info": {
        "mobilesdk_app_id": "1:529266419058:android:59b17c666e7a5e18ee29eb",
        "android_client_info": {
          "package_name": "id.moroartos.soom"
        }
      },
      "oauth_client": [
        {
          "client_id": "529266419058-1e3v80g7nmdafd1lrjdi0akd08tsn3gc.apps.googleusercontent.com",
          "client_type": 3
        }
      ],
      "api_key": [
        {
          "current_key": "AIzaSyCcAcIfpUjWohFCc-OmFmzk5aSwzFoB0Eo"
        }
      ],
      "services": {
        "appinvite_service": {
          "other_platform_oauth_client": [
            {
              "client_id": "529266419058-1e3v80g7nmdafd1lrjdi0akd08tsn3gc.apps.googleusercontent.com",
              "client_type": 3
            }
          ]
        }
      }
    }
  ],
  "configuration_version": "1"
}